{
  "profiles": {
    "kestrel": {
      "commandName": "kestrel",
      "environmentVariables": {
        "ASPNET_ENV": "Development",
        "LOG_FORMAT": "Plain",
        "PLAID_CONFIGURATION_HOST": "52.52.235.52",
        "PLAID_CONFIGURATION_PORT": "7001",
        "PLAID_MONGO_CONNECTION": "mongodb://fc360:fcSigma@52.52.235.52:27017/admin",
        "PLAID_EVENTHUB_HOST": "52.52.235.52",
        "PLAID_EVENTHUB_PORT": "7002",
        "PLAID_TENANT_HOST": "52.52.235.52",
        "PLAID_TENANT_PORT": "7003",
        "PLAID_LOOKUPSERVICE_HOST": "52.52.235.52",
        "PLAID_LOOKUPSERVICE_PORT": "7005",
        "PLAID_TLSPROXY_HOST": "52.52.235.52",
        "PLAID_TLSPROXY_PORT": "5010",
        "PLAID_NATS_URL": "52.52.235.52:4222",
        "PLAID_DOCUMENTGENERATOR_HOST": "52.52.235.52",
        "PLAID_DOCUMENTGENERATOR_PORT": "7015",
        "PLAID_DECISION_ENGINE_HOST": "52.52.235.52",
        "PLAID_DECISION_ENGINE_PORT": "7011",
        "PLAID_CASHFLOW_PORT": "7071",
        "PLAID_CASHFLOW_HOST": "52.52.235.52"
      }
    }
  }
}